module github.com/libgit2/git2go/v32

go 1.13

require (
	github.com/google/shlex v0.0.0-20191202100458-e7afc7fbc510
	golang.org/x/crypto v0.0.0-20201203163018-be400aefbc4c
	golang.org/x/sys v0.0.0-20201204225414-ed752295db88 // indirect
)
